<svg xmlns="http://www.w3.org/2000/svg" xmlns:xlink="http://www.w3.org/1999/xlink" width="1110" height="305" viewBox="0 0 1110 305">
    <defs>
        <path id="a" d="M0 0h128v89H0z"/>
    </defs>
    <g fill="none" fill-rule="evenodd" transform="translate(-1)">
        <circle cx="916" cy="265" r="265" fill="#FFF"/>
        <circle cx="543" cy="371" r="265" fill="#FFF"/>
        <circle cx="237" cy="444" r="237" fill="#FFF"/>
        <path fill="#FFC947" d="M523.705 154.54c-.72 0-1.4.09-2.04.27-.64.18-1.35.47-2.13.87l-1.26-3.39c.78-.5 1.7-.885 2.76-1.155 1.06-.27 2.1-.405 3.12-.405 1.28 0 2.335.17 3.165.51.83.34 1.485.77 1.965 1.29s.815 1.09 1.005 1.71c.19.62.285 1.21.285 1.77s-.085 1.075-.255 1.545c-.17.47-.385.905-.645 1.305-.26.4-.56.78-.9 1.14-.34.36-.67.7-.99 1.02-.24.24-.49.495-.75.765a7.11 7.11 0 0 0-.705.855c-.21.3-.385.615-.525.945-.14.33-.21.665-.21 1.005v.36c0 .16.01.3.03.42h-3.96c-.04-.2-.065-.425-.075-.675-.01-.25-.015-.465-.015-.645 0-.56.07-1.065.21-1.515.14-.45.325-.87.555-1.26.23-.39.495-.755.795-1.095.3-.34.61-.67.93-.99.46-.46.88-.915 1.26-1.365.38-.45.57-.965.57-1.545 0-.48-.185-.89-.555-1.23-.37-.34-.915-.51-1.635-.51zm2.79 15.09c0 .88-.285 1.56-.855 2.04-.57.48-1.215.72-1.935.72s-1.365-.24-1.935-.72c-.57-.48-.855-1.16-.855-2.04 0-.88.285-1.56.855-2.04.57-.48 1.215-.72 1.935-.72s1.365.24 1.935.72c.57.48.855 1.16.855 2.04z"/>
        <path fill="#FCF4E3" d="M1146 266v66H1v-66h1145z"/>
        <path fill="#FAE9C1" fill-rule="nonzero" d="M1146 280.988c-.173.008-.348.012-.523.012H4.312c-1.17 0-2.286-.184-3.312-.52v-13.96a10.662 10.662 0 0 1 3.312-.52h1141.165c.175 0 .35.004.523.012v14.976z"/>
        <path fill="#FADC96" fill-rule="nonzero" d="M1146 262v9H1v-9h1145z"/>
        <path fill="#FAE9C1" d="M922.862 179.634c12.074 0 21.863-10.79 21.863-24.103 0-13.312-9.789-30.531-21.863-30.531C910.79 125 901 142.22 901 155.53c0 13.313 9.789 24.104 21.862 24.104M195.862 236.634c12.074 0 21.863-10.79 21.863-24.103 0-13.312-9.789-30.531-21.863-30.531C183.79 182 174 199.22 174 212.53c0 13.313 9.789 24.104 21.862 24.104M46.862 179.634c12.074 0 21.863-10.79 21.863-24.103 0-13.312-9.789-30.531-21.863-30.531C34.79 125 25 142.22 25 155.53c0 13.313 9.789 24.104 21.862 24.104M681.862 207.634c12.074 0 21.863-10.79 21.863-24.103 0-13.312-9.789-30.531-21.863-30.531C669.79 153 660 170.22 660 183.53c0 13.313 9.789 24.104 21.862 24.104M987.862 135.634c12.074 0 21.863-10.79 21.863-24.103 0-13.312-9.789-30.531-21.863-30.531C975.79 81 966 98.22 966 111.53c0 13.313 9.789 24.104 21.862 24.104M260.862 192.634c12.074 0 21.863-10.79 21.863-24.103 0-13.312-9.789-30.531-21.863-30.531C248.79 138 239 155.22 239 168.53c0 13.313 9.789 24.104 21.862 24.104M746.862 163.634c12.074 0 21.863-10.79 21.863-24.103 0-13.312-9.789-30.531-21.863-30.531C734.79 109 725 126.22 725 139.53c0 13.313 9.789 24.104 21.862 24.104M1052.862 161.634c12.074 0 21.863-10.79 21.863-24.103 0-13.312-9.789-30.531-21.863-30.531-12.073 0-21.862 17.22-21.862 30.53 0 13.313 9.789 24.104 21.862 24.104M325.862 218.634c12.074 0 21.863-10.79 21.863-24.103 0-13.312-9.789-30.531-21.863-30.531C313.79 164 304 181.22 304 194.53c0 13.313 9.789 24.104 21.862 24.104M601.362 218.634c12.074 0 21.863-10.79 21.863-24.103 0-13.312-9.789-30.531-21.863-30.531-12.073 0-21.862 17.22-21.862 30.53 0 13.313 9.789 24.104 21.862 24.104M111.862 198.634c12.074 0 21.863-10.79 21.863-24.103 0-13.312-9.789-30.531-21.863-30.531C99.79 144 90 161.22 90 174.53c0 13.313 9.789 24.104 21.862 24.104M811.862 189.634c12.074 0 21.863-10.79 21.863-24.103 0-13.312-9.789-30.531-21.863-30.531C799.79 135 790 152.22 790 165.53c0 13.313 9.789 24.104 21.862 24.104"/>
        <path stroke="#FADC96" stroke-width="3" d="M916.053 176.872c11.626 0 21.052-10.443 21.052-23.326 0-12.882-9.426-29.546-21.052-29.546C904.426 124 895 140.664 895 153.546c0 12.883 9.426 23.326 21.053 23.326M189.053 233.872c11.626 0 21.052-10.443 21.052-23.326 0-12.882-9.426-29.546-21.052-29.546C177.426 181 168 197.664 168 210.546c0 12.883 9.426 23.326 21.053 23.326M40.053 176.872c11.626 0 21.052-10.443 21.052-23.326 0-12.882-9.426-29.546-21.052-29.546C28.426 124 19 140.664 19 153.546c0 12.883 9.426 23.326 21.053 23.326M675.053 204.872c11.626 0 21.052-10.443 21.052-23.326 0-12.882-9.426-29.546-21.052-29.546C663.426 152 654 168.664 654 181.546c0 12.883 9.426 23.326 21.053 23.326M981.053 132.872c11.626 0 21.052-10.443 21.052-23.326 0-12.882-9.426-29.546-21.052-29.546C969.426 80 960 96.664 960 109.546c0 12.883 9.426 23.326 21.053 23.326M254.053 189.872c11.626 0 21.052-10.443 21.052-23.326 0-12.882-9.426-29.546-21.052-29.546C242.426 137 233 153.664 233 166.546c0 12.883 9.426 23.326 21.053 23.326M740.053 160.872c11.626 0 21.052-10.443 21.052-23.326 0-12.882-9.426-29.546-21.052-29.546C728.426 108 719 124.664 719 137.546c0 12.883 9.426 23.326 21.053 23.326M1046.053 158.872c11.626 0 21.052-10.443 21.052-23.326 0-12.882-9.426-29.546-21.052-29.546-11.627 0-21.053 16.664-21.053 29.546 0 12.883 9.426 23.326 21.053 23.326M319.053 215.872c11.626 0 21.052-10.443 21.052-23.326 0-12.882-9.426-29.546-21.052-29.546C307.426 163 298 179.664 298 192.546c0 12.883 9.426 23.326 21.053 23.326M594.553 215.872c11.626 0 21.052-10.443 21.052-23.326 0-12.882-9.426-29.546-21.052-29.546-11.627 0-21.053 16.664-21.053 29.546 0 12.883 9.426 23.326 21.053 23.326M105.053 195.872c11.626 0 21.052-10.443 21.052-23.326 0-12.882-9.426-29.546-21.052-29.546C93.426 143 84 159.664 84 172.546c0 12.883 9.426 23.326 21.053 23.326M805.053 186.872c11.626 0 21.052-10.443 21.052-23.326 0-12.882-9.426-29.546-21.052-29.546C793.426 134 784 150.664 784 163.546c0 12.883 9.426 23.326 21.053 23.326"/>
        <path stroke="#FADC96" stroke-linecap="square" stroke-width="3" d="M917.15 178v86.086M190.15 235v28.597M41.15 178v86.086M676.15 206v56.501M982.15 134v128.5M255.15 191v70.5M741.15 162v99.595M1047.15 160v102.502M320.15 217v46.505M595.65 217v46.505M106.15 197v62.729M806.15 188v73.5"/>
        <g transform="matrix(-1 0 0 1 538 185)">
            <mask id="b" fill="#fff">
                <use xlink:href="#a"/>
            </mask>
            <path fill="#FFC854" d="M52.478 66.252c.308.619.572 1.264.93 1.852 1.089 1.779 2.04 3.575 1.565 5.785-.264 1.227-.731 2.362-1.926 2.867-3.108 1.311-6.256 2.53-9.395 3.77-.226.09-.498.064-1.091.129l1.687-2.208c-.919.37-1.612.72-2.347.913-.33.086-.74-.148-1.114-.237.17-.305.263-.742.522-.892.88-.511 1.818-.924 2.736-1.37 1.162-.563 2.397-1.014 3.473-1.71 1.381-.894 1.52-1.924.705-3.357-1.15-2.02-2.352-4.013-3.442-6.066-1.16-2.186-1.554-4.592-1.715-7.035-.086-1.3-.11-2.603-.176-3.904-.153-3.017-3.106-6.982-5.995-7.927-.521-.17-1.293-.156-1.736.119-2.387 1.48-4.673 3.104-6.119 5.63-.098.172-.25.328-.41.45-1.108.845-2.225 1.68-3.457 2.606-.482-.841.043-1.733.441-2.7h-1.36a70.247 70.247 0 0 0-.232-.262c.369-.408.66-.985 1.12-1.196 2.564-1.175 3.66-3.362 4.285-5.922.257-1.053.542-2.099.823-3.184-1.22-.857-2.891-.052-5.479 2.594.046-.364.04-.745.152-1.087.133-.407.368-.78.637-1.323h-2.103c.48-.45.72-.75 1.027-.946.576-.364 1.211-.636 1.786-1.002 1.375-.874 1.75-2.283 1.006-3.742a9.051 9.051 0 0 0-.807-1.31c-2.561-3.42-3.753-7.308-4.173-11.528-.188-1.89-.734-3.75-1.212-5.6-.357-1.385-1.382-2.06-2.785-2.177-2.246-.187-4.515-.235-6.733-.597-2.416-.394-4.79-1.063-7.171-1.657-.313-.078-.56-.42-.837-.64.315-.204.606-.505.95-.592a13.68 13.68 0 0 1 2.32-.39c2.348-.175 4.227-1.254 5.796-2.942.622-.669 1.199-1.38 1.875-2.162-1.157 0-2.155-.028-3.151.006-3.244.11-6.497.35-9.689-.47C1.072 6.686.552 6.274 0 5.983c.422-.412.783-.926 1.275-1.22 3.549-2.12 7.073-4.29 10.707-6.256 2.943-1.594 6.163-2.14 9.262-.57C26.386.543 30.52 4.08 31.584 10.242c.387 2.249 1.148 4.434 1.741 6.647.85 3.172 2.92 4.664 6.19 4.756 2.937.082 5.872.316 8.8.575 8.836.783 16.219 4.437 22.097 11.169 6.113 7 12.642 13.59 19.76 19.573.994.835 2.086 1.554 3.082 2.387 2.596 2.17 5.305 4.232 7.707 6.602 2.901 2.864 6.121 5.108 9.895 6.62 5.357 2.147 10.685 4.364 16.022 6.56.609.25 1.411.395 1.017 1.405-.351.903-.968.967-1.824.747-3.703-.953-7.425-1.828-11.129-2.777-5.572-1.43-10.991-3.204-15.942-6.288-4.057-2.528-8.251-4.844-12.447-7.138-4.968-2.715-10.378-3.997-15.978-4.448-2.549-.206-5.117-.177-7.677-.213-.573-.009-1.158.115-1.721.246-2.01.469-2.377 1.118-1.605 3.076 1.184 3.002 3.14 5.52 5.16 7.989.389.476.777.958 1.123 1.466.527.774.848 1.558.669 2.587-.16.925.123 1.918.036 2.864-.3 3.211-2.454 5.259-4.728 7.163-.827.691-1.867 1.125-2.803 1.688-1.165.7-2.31 1.432-3.49 2.106-.359.205-.8.268-1.203.396-.066-.407-.164-.813-.184-1.223-.012-.228.1-.465.169-.695.234-.79-.003-1.148-.878-1.118-.432.015-.871-.192-1.308-.299.125-.45.12-1.022.402-1.322.492-.526 1.103-1.048 1.766-1.283 2.464-.871 4.129-2.641 5.46-4.755.271-.43.28-1.396-.019-1.756-1.837-2.21-3.786-4.326-5.724-6.45-.368-.405-.85-.704-1.28-1.052l-.262.205" mask="url(#b)"/>
        </g>
    </g>
</svg>
